\relax 
\providecommand\hyper@newdestlabel[2]{}
\providecommand*\new@tpo@label[2]{}
\providecommand\HyperFirstAtBeginDocument{\AtBeginDocument}
\HyperFirstAtBeginDocument{\ifx\hyper@anchor\@undefined
\global\let\oldcontentsline\contentsline
\gdef\contentsline#1#2#3#4{\oldcontentsline{#1}{#2}{#3}}
\global\let\oldnewlabel\newlabel
\gdef\newlabel#1#2{\newlabelxx{#1}#2}
\gdef\newlabelxx#1#2#3#4#5#6{\oldnewlabel{#1}{{#2}{#3}}}
\AtEndDocument{\ifx\hyper@anchor\@undefined
\let\contentsline\oldcontentsline
\let\newlabel\oldnewlabel
\fi}
\fi}
\global\let\hyper@last\relax 
\gdef\HyperFirstAtBeginDocument#1{#1}
\providecommand\HyField@AuxAddToFields[1]{}
\providecommand\HyField@AuxAddToCoFields[2]{}
\providecommand\BKM@entry[2]{}
\providecommand\mph@setcol[2]{}
\@writefile{lof}{\deactivateaddvspace  }
\@writefile{lot}{\deactivateaddvspace  }
\mph@setcol{ii:1}{\mph@nr}
\BKM@entry{id=1,dest={73656374696F6E2E31},srcline={98}}{3120436F7272656C6174696F6E20767320436175736174696F6E}
\BKM@entry{id=2,dest={73756273656374696F6E2E312E31},srcline={110}}{312E312043617573616C697479}
\citation{causation}
\citation{causalityTime}
\BKM@entry{id=3,dest={73756273656374696F6E2E312E32},srcline={119}}{312E32205479706573206F6620436175736573}
\citation{humeNecandSuf}
\@writefile{toc}{\contentsline {section}{\numberline {1}{Correlation vs Causation}}{2}{section.1}\protected@file@percent }
\@writefile{toc}{\contentsline {subsection}{\numberline {1.1}{Causality}}{2}{subsection.1.1}\protected@file@percent }
\@writefile{toc}{\contentsline {subsection}{\numberline {1.2}{Types of Causes}}{2}{subsection.1.2}\protected@file@percent }
\mph@setcol{ii:2}{\mph@nr}
\BKM@entry{id=4,dest={73656374696F6E2E32},srcline={131}}{32204772617068205468656F7279}
\BKM@entry{id=5,dest={73756273656374696F6E2E322E31},srcline={133}}{322E3120496E74726F64756374696F6E20746F204772617068205468656F7279}
\citation{graphTheory}
\BKM@entry{id=6,dest={73756273656374696F6E2E322E32},srcline={151}}{322E3220446972656374656420416379636C696320477261706873}
\citation{causalDiag}
\BKM@entry{id=7,dest={73656374696F6E2E33},srcline={172}}{33204170706C69636174696F6E73}
\BKM@entry{id=8,dest={73756273656374696F6E2E332E31},srcline={174}}{332E3120496D706C656D656E746174696F6E}
\citation{impCaus}
\@writefile{toc}{\contentsline {section}{\numberline {2}{Graph Theory}}{3}{section.2}\protected@file@percent }
\@writefile{toc}{\contentsline {subsection}{\numberline {2.1}{Introduction to Graph Theory}}{3}{subsection.2.1}\protected@file@percent }
\@writefile{toc}{\contentsline {subsection}{\numberline {2.2}{Directed Acyclic Graphs}}{3}{subsection.2.2}\protected@file@percent }
\@writefile{lof}{\contentsline {figure}{\numberline {1}{\ignorespaces Directed Acyclic Graph\relax }}{3}{figure.caption.1}\protected@file@percent }
\providecommand*\caption@xref[2]{\@setref\relax\@undefined{#1}}
\newlabel{fig:dag}{{1}{3}{Directed Acyclic Graph\relax }{figure.caption.1}{}}
\mph@setcol{ii:3}{\mph@nr}
\BKM@entry{id=9,dest={73756273656374696F6E2E332E32},srcline={191}}{332E3220537472656E67746873}
\citation{DAGCrit}
\BKM@entry{id=10,dest={73756273656374696F6E2E332E33},srcline={203}}{332E33205765616B6E6573736573}
\BKM@entry{id=11,dest={73656374696F6E2E34},srcline={212}}{3420436F6E636C7573696F6E}
\@writefile{toc}{\contentsline {section}{\numberline {3}{Applications}}{4}{section.3}\protected@file@percent }
\@writefile{toc}{\contentsline {subsection}{\numberline {3.1}{Implementation}}{4}{subsection.3.1}\protected@file@percent }
\@writefile{toc}{\contentsline {subsection}{\numberline {3.2}{Strengths}}{4}{subsection.3.2}\protected@file@percent }
\@writefile{toc}{\contentsline {subsection}{\numberline {3.3}{Weaknesses}}{4}{subsection.3.3}\protected@file@percent }
\@writefile{toc}{\contentsline {section}{\numberline {4}{Conclusion}}{4}{section.4}\protected@file@percent }
\mph@setcol{ii:4}{\mph@nr}
\mph@setcol{ii:5}{\mph@nr}
\bibstyle{unsrt}
\bibdata{bibliography.bib}
\bibcite{causation}{1}
\bibcite{causalityTime}{2}
\bibcite{humeNecandSuf}{3}
\bibcite{graphTheory}{4}
\bibcite{causalDiag}{5}
\bibcite{impCaus}{6}
\bibcite{DAGCrit}{7}
\mph@setcol{ii:6}{\mph@nr}
\gdef\mph@lastpage{7}
\csname mph@do@warn\endcsname
