# Fdb version 3
["bibtex finalPHL"] 1560220948 "finalPHL.aux" "finalPHL.bbl" "finalPHL" 1560221405
  "/usr/share/texmf-dist/bibtex/bst/base/unsrt.bst" 1550406775 18030 1376b4b231b50c66211e47e42eda2875 ""
  "bibliography.bib" 1560218767 9055 742b0610208218a63210783c4b1dae5b ""
  "finalPHL.aux" 1560221405 4162 187a3decc2f8a67e702c4f616b5f20ee ""
  (generated)
  "finalPHL.bbl"
  "finalPHL.blg"
["pdflatex"] 1560221404 "finalPHL.tex" "finalPHL.pdf" "finalPHL" 1560221405
  "/dev/null" 1560200821 0 d41d8cd98f00b204e9800998ecf8427e ""
  "/usr/share/texmf-dist/fonts/enc/dvips/base/8r.enc" 1550406775 4850 80dc9bab7f31fb78a000ccfed0e27cab ""
  "/usr/share/texmf-dist/fonts/enc/dvips/iwona/ec-iwona-sc.enc" 1550407196 2452 388b1f44dfda03ab19527677af70e7fb ""
  "/usr/share/texmf-dist/fonts/enc/dvips/iwona/ec-iwona.enc" 1550407196 2027 f8708480c25b8150843bb94b8b39c93f ""
  "/usr/share/texmf-dist/fonts/map/fontname/texfonts.map" 1550406775 3332 103109f5612ad95229751940c61aada0 ""
  "/usr/share/texmf-dist/fonts/tfm/adobe/palatino/pplb8r.tfm" 1550406775 2532 9ad73cf4dd2173a847f2a5f5608e0b9a ""
  "/usr/share/texmf-dist/fonts/tfm/adobe/palatino/pplb9d.tfm" 1550406775 5972 3c3b0ad6e88dfd1de0d685b95994e6d4 ""
  "/usr/share/texmf-dist/fonts/tfm/adobe/palatino/pplbj8r.tfm" 1550406775 2568 03eec8472f6969c31cdb5c8d5a654cf6 ""
  "/usr/share/texmf-dist/fonts/tfm/adobe/palatino/pplr8r.tfm" 1550406775 2796 d37c29814a6717720ee1a7c9a0b2c3b8 ""
  "/usr/share/texmf-dist/fonts/tfm/adobe/palatino/pplr9d.tfm" 1550406775 6952 fcebd9505ff25166f6bdc98f5d26741b ""
  "/usr/share/texmf-dist/fonts/tfm/adobe/palatino/pplr9o.tfm" 1550406775 2284 54309a7b6fc3665a0be437133b80511a ""
  "/usr/share/texmf-dist/fonts/tfm/adobe/palatino/pplrc8r.tfm" 1550406775 3528 0711c6c96865155bce7256fa14ac59b1 ""
  "/usr/share/texmf-dist/fonts/tfm/adobe/palatino/pplrc9d.tfm" 1550406775 11500 e499761de3fa37379640805b2396b230 ""
  "/usr/share/texmf-dist/fonts/tfm/adobe/palatino/pplri8r.tfm" 1550406775 2720 70000d5e623e601132eab3cded5b819b ""
  "/usr/share/texmf-dist/fonts/tfm/adobe/palatino/pplri9d.tfm" 1550406775 4636 ff01db17fb5451eb75ae6574be71b347 ""
  "/usr/share/texmf-dist/fonts/tfm/adobe/palatino/pplrij8r.tfm" 1550406775 2752 e6517395459b168a8c504102102c1389 ""
  "/usr/share/texmf-dist/fonts/tfm/jknappen/ec/ecrm1200.tfm" 1550406775 3584 f80ddd985bd00e29e9a6047ebd9d4781 ""
  "/usr/share/texmf-dist/fonts/tfm/nowacki/iwona/ec-iwonab-sc.tfm" 1550407196 10660 dad0186431a87276dda5cfd8290f8f94 ""
  "/usr/share/texmf-dist/fonts/tfm/nowacki/iwona/ec-iwonab.tfm" 1550407196 12616 b5d5bff71316a465785734fb82a15a9a ""
  "/usr/share/texmf-dist/fonts/tfm/nowacki/iwona/ec-iwonar-sc.tfm" 1550407196 10644 62272236f2dcaa6692e0db8fb11446ff ""
  "/usr/share/texmf-dist/fonts/tfm/nowacki/iwona/ec-iwonar.tfm" 1550407196 12616 1c3aa33f1570ce5422fd37d5b02fd0e5 ""
  "/usr/share/texmf-dist/fonts/tfm/public/amsfonts/euler/eufm10.tfm" 1550406775 1040 b84415f97d114011685943ade933dc71 ""
  "/usr/share/texmf-dist/fonts/tfm/public/amsfonts/euler/eurm10.tfm" 1550406775 1228 9be37fdf0dc0e1f4df4af3594876d628 ""
  "/usr/share/texmf-dist/fonts/tfm/public/amsfonts/euler/eusm10.tfm" 1550406775 896 1783287efa3eab95c325db36ffb6426d ""
  "/usr/share/texmf-dist/fonts/tfm/public/amsfonts/symbols/msam10.tfm" 1550406775 916 f87d7c45f9c908e672703b83b72241a3 ""
  "/usr/share/texmf-dist/fonts/tfm/public/amsfonts/symbols/msam7.tfm" 1550406775 928 2dc8d444221b7a635bb58038579b861a ""
  "/usr/share/texmf-dist/fonts/tfm/public/amsfonts/symbols/msbm10.tfm" 1550406775 908 2921f8a10601f252058503cc6570e581 ""
  "/usr/share/texmf-dist/fonts/tfm/public/amsfonts/symbols/msbm7.tfm" 1550406775 940 228d6584342e91276bf566bcf9716b83 ""
  "/usr/share/texmf-dist/fonts/tfm/public/cm/cmbx10.tfm" 1550406775 1328 c834bbb027764024c09d3d2bf908b5f0 ""
  "/usr/share/texmf-dist/fonts/tfm/public/cm/cmmi10.tfm" 1550406775 1528 abec98dbc43e172678c11b3b9031252a ""
  "/usr/share/texmf-dist/fonts/tfm/public/cm/cmr10.tfm" 1550406775 1296 45809c5a464d5f32c8f98ba97c1bb47f ""
  "/usr/share/texmf-dist/fonts/tfm/public/cm/cmr12.tfm" 1550406775 1288 655e228510b4c2a1abe905c368440826 ""
  "/usr/share/texmf-dist/fonts/tfm/public/cm/cmsy10.tfm" 1550406775 1124 6c73e740cf17375f03eec0ee63599741 ""
  "/usr/share/texmf-dist/fonts/tfm/public/eulervm/zeuex10.tfm" 1550407196 1100 df4a2e32feb1018ab7cadccbd3b36cc5 ""
  "/usr/share/texmf-dist/fonts/tfm/public/eulervm/zeurm10.tfm" 1550407196 1408 5ab706b0cf7ada23e6d5ade78caa495e ""
  "/usr/share/texmf-dist/fonts/tfm/public/eulervm/zeurm7.tfm" 1550407196 1408 e7dea5bac5c7a11e5243d697d8a30f6b ""
  "/usr/share/texmf-dist/fonts/tfm/public/eulervm/zeusm10.tfm" 1550407196 1468 14556b80bb970cde9c415baff3390759 ""
  "/usr/share/texmf-dist/fonts/tfm/public/eulervm/zeusm7.tfm" 1550407196 1484 12c865cfe38c855984134ff87f987323 ""
  "/usr/share/texmf-dist/fonts/tfm/public/mathpazo/fplmb.tfm" 1550406775 984 3dcde7360ef3d34302e591b511cba83c ""
  "/usr/share/texmf-dist/fonts/tfm/public/mathpazo/fplmr.tfm" 1550406775 1032 7fa31d93ecd4cbdfac02c7a1ebc6facc ""
  "/usr/share/texmf-dist/fonts/tfm/public/mathpazo/fplmri.tfm" 1550406775 1148 56b0fdf7ca3f800294e968f64cfdcb87 ""
  "/usr/share/texmf-dist/fonts/tfm/public/mathpazo/zplmr7t.tfm" 1550406775 1828 bb8add3bd19426549f9267c88b0cb8bd ""
  "/usr/share/texmf-dist/fonts/type1/nowacki/iwona/iwonab.pfb" 1550407196 145589 6d2b9e8501398593f14de4d0389034b0 ""
  "/usr/share/texmf-dist/fonts/type1/nowacki/iwona/iwonar.pfb" 1550407196 144367 bcac71dbb7cd94700e23df9d71f35989 ""
  "/usr/share/texmf-dist/fonts/type1/public/amsfonts/cm/cmsy10.pfb" 1550406775 32569 5e5ddc8df908dea60932f3c484a54c0d ""
  "/usr/share/texmf-dist/fonts/type1/public/amsfonts/euler/eurm10.pfb" 1550406775 22644 de44b1031364c5f57164f2249f1302c5 ""
  "/usr/share/texmf-dist/fonts/type1/public/fpl/fplrc8a.pfb" 1550406775 62231 6fa2851364e6117779162ea79cb96ef4 ""
  "/usr/share/texmf-dist/fonts/type1/public/fpl/fplrij8a.pfb" 1550406775 58411 be6be158edebf79e4cde3c52c70cc0ed ""
  "/usr/share/texmf-dist/fonts/type1/urw/palatino/uplb8a.pfb" 1550406775 52406 dad2f72863a03727d5f536c64a69c452 ""
  "/usr/share/texmf-dist/fonts/type1/urw/palatino/uplr8a.pfb" 1550406775 52665 661b1e6b26edb5f50dd491f8a701cb57 ""
  "/usr/share/texmf-dist/fonts/type1/urw/palatino/uplri8a.pfb" 1550406775 50022 90249cba7e3e4e9845f80328d6f9bd13 ""
  "/usr/share/texmf-dist/fonts/vf/adobe/palatino/pplb9d.vf" 1550406775 2324 85a909e6b24d35a2382fefa488bd1e84 ""
  "/usr/share/texmf-dist/fonts/vf/adobe/palatino/pplr9d.vf" 1550406775 2328 731ef1560c9cc8d6a9b524fbb0f55663 ""
  "/usr/share/texmf-dist/fonts/vf/adobe/palatino/pplrc9d.vf" 1550406775 2468 1735a054c722c01754225fa5826ab87d ""
  "/usr/share/texmf-dist/fonts/vf/adobe/palatino/pplri9d.vf" 1550406775 2328 b4b85e045d04906281f01d959b20f19d ""
  "/usr/share/texmf-dist/fonts/vf/public/eulervm/zeurm10.vf" 1550407196 924 7c0edb062253eb3de516d1194d1a2f55 ""
  "/usr/share/texmf-dist/fonts/vf/public/eulervm/zeusm10.vf" 1550407196 1068 874a491153ebfb8983ddb889dab0c967 ""
  "/usr/share/texmf-dist/tex/context/base/mkii/supp-pdf.mkii" 1550406775 71627 94eb9990bed73c364d7f53f960cc8c5b ""
  "/usr/share/texmf-dist/tex/generic/ifxetex/ifxetex.sty" 1550406775 1458 43ab4710dc82f3edeabecd0d099626b2 ""
  "/usr/share/texmf-dist/tex/generic/oberdiek/etexcmds.sty" 1550406775 7612 729a8cc22a1ee0029997c7f74717ae05 ""
  "/usr/share/texmf-dist/tex/generic/oberdiek/gettitlestring.sty" 1550406775 8237 3b62ef1f7e2c23a328c814b3893bc11f ""
  "/usr/share/texmf-dist/tex/generic/oberdiek/hobsub-generic.sty" 1550406775 185392 b99a6d53180e04300c35e18725f31231 ""
  "/usr/share/texmf-dist/tex/generic/oberdiek/hobsub-hyperref.sty" 1550406775 70864 bcd5b216757bd619ae692a151d90085d ""
  "/usr/share/texmf-dist/tex/generic/oberdiek/ifluatex.sty" 1550406775 7324 2310d1247db0114eb4726807c8837a0e ""
  "/usr/share/texmf-dist/tex/generic/oberdiek/ifpdf.sty" 1550406775 1300 96620a7d94bc0ceb261d968770ce8315 ""
  "/usr/share/texmf-dist/tex/generic/oberdiek/infwarerr.sty" 1550406775 8253 473e0e41f9adadb1977e8631b8f72ea6 ""
  "/usr/share/texmf-dist/tex/generic/oberdiek/kvsetkeys.sty" 1550406775 14040 ac8866aac45982ac84021584b0abb252 ""
  "/usr/share/texmf-dist/tex/generic/oberdiek/ltxcmds.sty" 1550406775 18425 5b3c0c59d76fac78978b5558e83c1f36 ""
  "/usr/share/texmf-dist/tex/generic/unicode-data/UnicodeData.txt" 1550406775 1769137 acc291106c3758d2025f8d7bd5518bee ""
  "/usr/share/texmf-dist/tex/latex/amscls/amsthm.sty" 1550406775 12604 3dec726c041422879dc3268237f09026 ""
  "/usr/share/texmf-dist/tex/latex/amsfonts/amsfonts.sty" 1550406775 5949 3f3fd50a8cc94c3d4cbf4fc66cd3df1c ""
  "/usr/share/texmf-dist/tex/latex/amsfonts/amssymb.sty" 1550406775 13829 94730e64147574077f8ecfea9bb69af4 ""
  "/usr/share/texmf-dist/tex/latex/amsmath/amsbsy.sty" 1550406775 2211 ca7ce284ab93c8eecdc6029dc5ccbd73 ""
  "/usr/share/texmf-dist/tex/latex/amsmath/amsgen.sty" 1550406775 4161 7f6eb9092061a11f87d08ed13515b48d ""
  "/usr/share/texmf-dist/tex/latex/amsmath/amsmath.sty" 1550406775 85093 77cfa18ddbae4d9b74ade33d843686d3 ""
  "/usr/share/texmf-dist/tex/latex/amsmath/amsopn.sty" 1550406775 4116 32e6abd27229755a83a8b7f18e583890 ""
  "/usr/share/texmf-dist/tex/latex/amsmath/amstext.sty" 1550406775 2432 8ff93b1137020e8f21930562a874ae66 ""
  "/usr/share/texmf-dist/tex/latex/arsclassica/arsclassica.sty" 1550406587 6390 71ffa38264da373069e29377fc8ff1a3 ""
  "/usr/share/texmf-dist/tex/latex/base/fontenc.sty" 1550406775 4573 e9e01f5b11821a77b916dad378cb86b8 ""
  "/usr/share/texmf-dist/tex/latex/base/ifthen.sty" 1550406775 5161 c004ea5a189d4bdcf42e86754ad75a58 ""
  "/usr/share/texmf-dist/tex/latex/base/inputenc.sty" 1550406775 5052 b64c57f4a38aae0d2745f8298fa50814 ""
  "/usr/share/texmf-dist/tex/latex/base/t1enc.def" 1550406775 10689 ce0f2353f9a1f42b29f591f3fe8e040a ""
  "/usr/share/texmf-dist/tex/latex/bera/beramono.sty" 1550407196 767 619e175cf21788218aa95de61f93b82f ""
  "/usr/share/texmf-dist/tex/latex/booktabs/booktabs.sty" 1550406775 5869 94335281ffcab47f341cf07ea8220e30 ""
  "/usr/share/texmf-dist/tex/latex/caption/caption.sty" 1550406775 68576 86bbc6bd5a409b3c353fccc1a815fa5b ""
  "/usr/share/texmf-dist/tex/latex/caption/caption3.sty" 1550406775 68510 943558eecf41da4e76fc614fd7f5deff ""
  "/usr/share/texmf-dist/tex/latex/carlisle/remreset.sty" 1550406775 1374 b7edb155e1fbb0886f1ab01c6cdb811f ""
  "/usr/share/texmf-dist/tex/latex/classicthesis/classicthesis.sty" 1550406587 30059 c405eec51ad6592640d49c4c83e34d5e ""
  "/usr/share/texmf-dist/tex/latex/enumitem/enumitem.sty" 1550406342 51603 ccc7546d1e15809a779ade2c44d54044 ""
  "/usr/share/texmf-dist/tex/latex/eulervm/eulervm.sty" 1550407196 10319 d81f788dffb44f15407425ed69190c92 ""
  "/usr/share/texmf-dist/tex/latex/eulervm/uzeuex.fd" 1550407196 1005 0c839dbcb15ecf54011e89af357737f7 ""
  "/usr/share/texmf-dist/tex/latex/eulervm/uzeur.fd" 1550407196 1251 c2d2e297909b2e011e9ed86819e04a8e ""
  "/usr/share/texmf-dist/tex/latex/eulervm/uzeus.fd" 1550407196 1251 7e8b385d60c933672a22ec620725ab36 ""
  "/usr/share/texmf-dist/tex/latex/graphics-cfg/color.cfg" 1550406775 1213 620bba36b25224fa9b7e1ccb4ecb76fd ""
  "/usr/share/texmf-dist/tex/latex/graphics-cfg/graphics.cfg" 1550406775 1224 978390e9c2234eab29404bc21b268d1e ""
  "/usr/share/texmf-dist/tex/latex/graphics-def/pdftex.def" 1550406775 17334 520b9b85ad8a2a48eda3f643e27a5179 ""
  "/usr/share/texmf-dist/tex/latex/graphics/dvipsnam.def" 1550406775 4945 c1421f5ee140ec8aa7a12ec5462e7bab ""
  "/usr/share/texmf-dist/tex/latex/graphics/graphics.sty" 1550406775 15272 5a97061616e0c8b2aa79c6615ff769f4 ""
  "/usr/share/texmf-dist/tex/latex/graphics/graphicx.sty" 1550406775 9063 d0a305975932762117cd1f06a582f896 ""
  "/usr/share/texmf-dist/tex/latex/graphics/keyval.sty" 1550406775 2591 6404d0c7d28505fb38ce0d86c2e28ae7 ""
  "/usr/share/texmf-dist/tex/latex/graphics/trig.sty" 1550406775 3977 cb9221976ed8a183afad65b59aa8629a ""
  "/usr/share/texmf-dist/tex/latex/hyperref/hpdftex.def" 1550406775 51744 477aad43ad6a7ba8c462d20c3e0808e0 ""
  "/usr/share/texmf-dist/tex/latex/hyperref/hyperref.sty" 1550406775 236074 d994150943d35d6af0d586a60cc78dd1 ""
  "/usr/share/texmf-dist/tex/latex/hyperref/nameref.sty" 1550406775 12949 81e4e808884a8f0e276b69410e234656 ""
  "/usr/share/texmf-dist/tex/latex/hyperref/pd1enc.def" 1550406775 14098 b4e1ecab4699a0341b8e1349e4c53fb1 ""
  "/usr/share/texmf-dist/tex/latex/iwona/t1iwona.fd" 1550407196 2612 b67b605443a1f9fa0353b928116a6664 ""
  "/usr/share/texmf-dist/tex/latex/koma-script/scrartcl.cls" 1550406775 221124 4c74cc7332c70a1e81207e06c3cea5aa ""
  "/usr/share/texmf-dist/tex/latex/koma-script/scrbase.sty" 1550406775 81085 17c6bc778d65581878b7ff0b0753fb77 ""
  "/usr/share/texmf-dist/tex/latex/koma-script/scrkbase.sty" 1550406775 22023 79a694d8a1bcff7a7bc417d04572bae5 ""
  "/usr/share/texmf-dist/tex/latex/koma-script/scrlayer-scrpage.sty" 1550406775 70981 b0f764879e23417a16617f15311473c4 ""
  "/usr/share/texmf-dist/tex/latex/koma-script/scrlayer.sty" 1550406775 83307 c2e51f335f22163f690881411a650c5a ""
  "/usr/share/texmf-dist/tex/latex/koma-script/scrlfile.sty" 1550406775 15778 6cd4024c756f36926e3648af5491b355 ""
  "/usr/share/texmf-dist/tex/latex/koma-script/scrsize12pt.clo" 1550406775 6367 8c4cbc661c01bc277f8f3e5667413f26 ""
  "/usr/share/texmf-dist/tex/latex/koma-script/scrtime.sty" 1550406775 4101 e1ca9ed152d2ae24e08645c67dbb1a33 ""
  "/usr/share/texmf-dist/tex/latex/koma-script/tocbasic.sty" 1550406775 81976 8b9a8578993190cef03de666387a190a ""
  "/usr/share/texmf-dist/tex/latex/koma-script/typearea.sty" 1550406775 55196 016cf9f6a6c58ce9e573af1072da1623 ""
  "/usr/share/texmf-dist/tex/latex/l3kernel/expl3-code.tex" 1550406775 978969 ea00779a4e924fc996eabfce5826905e ""
  "/usr/share/texmf-dist/tex/latex/l3kernel/expl3.sty" 1550406775 9824 221c10456d7fdfd5013036a3b991642e ""
  "/usr/share/texmf-dist/tex/latex/l3kernel/l3pdfmode.def" 1550406775 16212 713dbead930ffb58b188112777e06b82 ""
  "/usr/share/texmf-dist/tex/latex/l3packages/xparse/xparse.sty" 1550406775 78679 0f13caccf8fc0a14ee080e185fe4bd6e ""
  "/usr/share/texmf-dist/tex/latex/latexconfig/epstopdf-sys.cfg" 1550406775 678 4792914a8f45be57bb98413425e4c7af ""
  "/usr/share/texmf-dist/tex/latex/latexconfig/hyperref.cfg" 1550406775 235 6031e5765137be07eed51a510b2b8fb7 ""
  "/usr/share/texmf-dist/tex/latex/lipsum/lipsum.ltd.tex" 1550406342 98047 c6fa29828cc60471827afe275c8bd77f ""
  "/usr/share/texmf-dist/tex/latex/lipsum/lipsum.sty" 1550406342 18060 8cf65af2c4529eed91b5d364b50d3ada ""
  "/usr/share/texmf-dist/tex/latex/microtype/microtype-pdftex.def" 1550406775 48846 b8c9ed2ca71a7e344e0f79f738d33d61 ""
  "/usr/share/texmf-dist/tex/latex/microtype/microtype.cfg" 1550406775 24263 58b62b9b15af10c2a301a884405289a4 ""
  "/usr/share/texmf-dist/tex/latex/microtype/microtype.sty" 1550406775 71031 8c1efead07338247d562f79303165b66 ""
  "/usr/share/texmf-dist/tex/latex/microtype/mt-eur.cfg" 1550406775 3653 14711c75fb96343723b329ae1222da5b ""
  "/usr/share/texmf-dist/tex/latex/microtype/mt-eus.cfg" 1550406775 4839 2509c536995d2020cee4313387a57c85 ""
  "/usr/share/texmf-dist/tex/latex/microtype/mt-msa.cfg" 1550406775 5893 b1115f9ad37c7e9840952f06293b6f67 ""
  "/usr/share/texmf-dist/tex/latex/microtype/mt-msb.cfg" 1550406775 5558 dabcbec7f6275abd8697b8330d706a08 ""
  "/usr/share/texmf-dist/tex/latex/microtype/mt-ppl.cfg" 1550406775 6338 386e877f0677973bec9f202c717f342a ""
  "/usr/share/texmf-dist/tex/latex/mparhack/mparhack.sty" 1550406342 8173 ed6fb97f7555c1c678527533e4890fad ""
  "/usr/share/texmf-dist/tex/latex/oberdiek/auxhook.sty" 1550406775 3834 4363110eb0ef1eb2b71c8fcbcdb6c357 ""
  "/usr/share/texmf-dist/tex/latex/oberdiek/bkm-pdftex.def" 1550406775 8382 d027b9fab7440aa0716d4a2e9455eeca ""
  "/usr/share/texmf-dist/tex/latex/oberdiek/bookmark.sty" 1550406775 18920 32621f3a02f5d05b1e35f55abc232aab ""
  "/usr/share/texmf-dist/tex/latex/oberdiek/epstopdf-base.sty" 1550406775 12095 5337833c991d80788a43d3ce26bd1c46 ""
  "/usr/share/texmf-dist/tex/latex/oberdiek/grfext.sty" 1550406775 7075 2fe3d848bba95f139de11ded085e74aa ""
  "/usr/share/texmf-dist/tex/latex/oberdiek/kvoptions.sty" 1550406775 22417 1d9df1eb66848aa31b18a593099cf45c ""
  "/usr/share/texmf-dist/tex/latex/oberdiek/rerunfilecheck.sty" 1550406775 9581 023642318cef9f4677efe364de1e2a27 ""
  "/usr/share/texmf-dist/tex/latex/psnfss/mathpazo.sty" 1550406775 8977 7001b1ab94674ce4a6004aef2826ec90 ""
  "/usr/share/texmf-dist/tex/latex/psnfss/ot1pplj.fd" 1550406775 869 9765301c678d5ab1879edc807ef55670 ""
  "/usr/share/texmf-dist/tex/latex/psnfss/ot1zplm.fd" 1550406775 436 5e7baa1a259bab50a2bdffad6426f38c ""
  "/usr/share/texmf-dist/tex/latex/psnfss/t1pplj.fd" 1550406775 678 8409322997570775faae75e749c76dbf ""
  "/usr/share/texmf-dist/tex/latex/subfig/subfig.sty" 1550406775 21369 9ef165ca6df8815c92e693146a376c92 ""
  "/usr/share/texmf-dist/tex/latex/textcase/textcase.sty" 1550406775 2022 79a2c3efd954daff1698214872b6ca46 ""
  "/usr/share/texmf-dist/tex/latex/titlesec/block.tss" 1550406342 1410 f5fabf556740993e1391ddd9561033c8 ""
  "/usr/share/texmf-dist/tex/latex/titlesec/titlesec.sty" 1550406342 37387 afa86533e532701faf233f3f592c61e0 ""
  "/usr/share/texmf-dist/tex/latex/tocloft/tocloft.sty" 1550406342 35908 cf004ee7afad1af9a1182e95b5c31f8f ""
  "/usr/share/texmf-dist/tex/latex/tools/varioref.sty" 1550406775 33872 ebcfc47a0895dd8e9bdce72102148cb2 ""
  "/usr/share/texmf-dist/tex/latex/url/url.sty" 1550406775 12796 8edb7d69a20b857904dd0ea757c14ec9 ""
  "/usr/share/texmf-dist/tex/latex/wrapfig/wrapfig.sty" 1550406342 26220 3701aebf80ccdef248c0c20dd062fea9 ""
  "/usr/share/texmf-dist/tex/latex/xcolor/xcolor.sty" 1550406775 55589 34128738f682d033422ca125f82e5d62 ""
  "/usr/share/texmf-dist/web2c/texmf.cnf" 1550406775 33301 a3134070eacafb10b1f371612ce2650d ""
  "/var/lib/texmf/fonts/map/pdftex/updmap/pdftex.map" 1556596034 3106252 d5255ed7fd6ec6ea7699581e9a54cb46 ""
  "/var/lib/texmf/web2c/pdftex/pdflatex.fmt" 1556596028 7919196 b3ca0b3c3d31e229c2ab3509a396f7a1 ""
  "finalPHL.aux" 1560221405 4162 187a3decc2f8a67e702c4f616b5f20ee ""
  "finalPHL.bbl" 1560220948 1282 4fdb7b5a14a500132b2d11b3c5374b96 "bibtex finalPHL"
  "finalPHL.out" 1560221404 0 d41d8cd98f00b204e9800998ecf8427e ""
  "finalPHL.tex" 1560221401 13468 ddf5921c816144158856f33025e7b5c5 ""
  "finalPHL.toc" 1560221405 885 5b358be8fa8467b0bc72381a3f2adc32 ""
  "images/DAG.png" 1560120296 14269 0d636b56502c0413c5bf43f45d6d3214 ""
  "structure.tex" 1560121298 3063 9fde543fe9047da4256b2f62b35351cb ""
  (generated)
  "finalPHL.aux"
  "finalPHL.out"
  "finalPHL.toc"
  "finalPHL.log"
  "finalPHL.pdf"
