\relax 
\@writefile{toc}{\contentsline {section}{Methodology}{2}\protected@file@percent }
\@writefile{toc}{\contentsline {section}{Results}{2}\protected@file@percent }
\@writefile{toc}{\contentsline {section}{Discussion}{2}\protected@file@percent }
\@writefile{toc}{\contentsline {section}{Conclusion}{2}\protected@file@percent }
