# Fdb version 3
["pdflatex"] 1590177527 "vancekWritten4.tex" "vancekWritten4.pdf" "vancekWritten4" 1590177528
  "/etc/texmf/web2c/texmf.cnf" 1586197133 475 c0e671620eb5563b2130f56340a5fde8 ""
  "/usr/share/texlive/texmf-dist/fonts/map/fontname/texfonts.map" 1511824771 3332 103109f5612ad95229751940c61aada0 ""
  "/usr/share/texlive/texmf-dist/fonts/tfm/public/amsfonts/cmextra/cmex7.tfm" 1480098698 1004 54797486969f23fa377b128694d548df ""
  "/usr/share/texlive/texmf-dist/fonts/tfm/public/amsfonts/cmextra/cmex8.tfm" 1480098698 988 bdf658c3bfc2d96d3c8b02cfc1c94c20 ""
  "/usr/share/texlive/texmf-dist/fonts/tfm/public/amsfonts/symbols/msam10.tfm" 1480098698 916 f87d7c45f9c908e672703b83b72241a3 ""
  "/usr/share/texlive/texmf-dist/fonts/tfm/public/amsfonts/symbols/msam5.tfm" 1480098698 924 9904cf1d39e9767e7a3622f2a125a565 ""
  "/usr/share/texlive/texmf-dist/fonts/tfm/public/amsfonts/symbols/msam7.tfm" 1480098698 928 2dc8d444221b7a635bb58038579b861a ""
  "/usr/share/texlive/texmf-dist/fonts/tfm/public/amsfonts/symbols/msbm10.tfm" 1480098698 908 2921f8a10601f252058503cc6570e581 ""
  "/usr/share/texlive/texmf-dist/fonts/tfm/public/amsfonts/symbols/msbm5.tfm" 1480098698 940 75ac932a52f80982a9f8ea75d03a34cf ""
  "/usr/share/texlive/texmf-dist/fonts/tfm/public/amsfonts/symbols/msbm7.tfm" 1480098698 940 228d6584342e91276bf566bcf9716b83 ""
  "/usr/share/texlive/texmf-dist/fonts/tfm/public/cm/cmbx10.tfm" 1136768653 1328 c834bbb027764024c09d3d2bf908b5f0 ""
  "/usr/share/texlive/texmf-dist/fonts/tfm/public/cm/cmbx12.tfm" 1136768653 1324 c910af8c371558dc20f2d7822f66fe64 ""
  "/usr/share/texlive/texmf-dist/fonts/tfm/public/cm/cmbx5.tfm" 1136768653 1332 f817c21a1ba54560425663374f1b651a ""
  "/usr/share/texlive/texmf-dist/fonts/tfm/public/cm/cmbx7.tfm" 1136768653 1336 3125ccb448c1a09074e3aa4a9832f130 ""
  "/usr/share/texlive/texmf-dist/fonts/tfm/public/cm/cmex10.tfm" 1136768653 992 662f679a0b3d2d53c1b94050fdaa3f50 ""
  "/usr/share/texlive/texmf-dist/fonts/tfm/public/cm/cmmi12.tfm" 1136768653 1524 4414a8315f39513458b80dfc63bff03a ""
  "/usr/share/texlive/texmf-dist/fonts/tfm/public/cm/cmmi6.tfm" 1136768653 1512 f21f83efb36853c0b70002322c1ab3ad ""
  "/usr/share/texlive/texmf-dist/fonts/tfm/public/cm/cmmi8.tfm" 1136768653 1520 eccf95517727cb11801f4f1aee3a21b4 ""
  "/usr/share/texlive/texmf-dist/fonts/tfm/public/cm/cmr12.tfm" 1136768653 1288 655e228510b4c2a1abe905c368440826 ""
  "/usr/share/texlive/texmf-dist/fonts/tfm/public/cm/cmr17.tfm" 1136768653 1292 296a67155bdbfc32aa9c636f21e91433 ""
  "/usr/share/texlive/texmf-dist/fonts/tfm/public/cm/cmr6.tfm" 1136768653 1300 b62933e007d01cfd073f79b963c01526 ""
  "/usr/share/texlive/texmf-dist/fonts/tfm/public/cm/cmr8.tfm" 1136768653 1292 21c1c5bfeaebccffdb478fd231a0997d ""
  "/usr/share/texlive/texmf-dist/fonts/tfm/public/cm/cmr9.tfm" 1136768653 1292 6b21b9c2c7bebb38aa2273f7ca0fb3af ""
  "/usr/share/texlive/texmf-dist/fonts/tfm/public/cm/cmsy10.tfm" 1136768653 1124 6c73e740cf17375f03eec0ee63599741 ""
  "/usr/share/texlive/texmf-dist/fonts/tfm/public/cm/cmsy6.tfm" 1136768653 1116 933a60c408fc0a863a92debe84b2d294 ""
  "/usr/share/texlive/texmf-dist/fonts/tfm/public/cm/cmsy8.tfm" 1136768653 1120 8b7d695260f3cff42e636090a8002094 ""
  "/usr/share/texlive/texmf-dist/fonts/tfm/public/cm/cmti12.tfm" 1136768653 1484 ed72f8f5cf654cda15ecc8e32bfcbee5 ""
  "/usr/share/texlive/texmf-dist/fonts/type1/public/amsfonts/cm/cmbx10.pfb" 1480098733 34811 78b52f49e893bcba91bd7581cdc144c0 ""
  "/usr/share/texlive/texmf-dist/fonts/type1/public/amsfonts/cm/cmbx12.pfb" 1480098733 32080 340ef9bf63678554ee606688e7b5339d ""
  "/usr/share/texlive/texmf-dist/fonts/type1/public/amsfonts/cm/cmex10.pfb" 1480098733 30251 6afa5cb1d0204815a708a080681d4674 ""
  "/usr/share/texlive/texmf-dist/fonts/type1/public/amsfonts/cm/cmmi10.pfb" 1480098733 36299 5f9df58c2139e7edcf37c8fca4bd384d ""
  "/usr/share/texlive/texmf-dist/fonts/type1/public/amsfonts/cm/cmmi7.pfb" 1480098733 36281 c355509802a035cadc5f15869451dcee ""
  "/usr/share/texlive/texmf-dist/fonts/type1/public/amsfonts/cm/cmr10.pfb" 1480098733 35752 024fb6c41858982481f6968b5fc26508 ""
  "/usr/share/texlive/texmf-dist/fonts/type1/public/amsfonts/cm/cmr9.pfb" 1480098733 33993 9b89b85fd2d9df0482bd47194d1d3bf3 ""
  "/usr/share/texlive/texmf-dist/fonts/type1/public/amsfonts/cm/cmsy10.pfb" 1480098733 32569 5e5ddc8df908dea60932f3c484a54c0d ""
  "/usr/share/texlive/texmf-dist/fonts/type1/public/amsfonts/cm/cmti12.pfb" 1480098733 36118 fad905eba93cff5bce1e185fe980a177 ""
  "/usr/share/texlive/texmf-dist/tex/context/base/mkii/supp-pdf.mkii" 1461363279 71627 94eb9990bed73c364d7f53f960cc8c5b ""
  "/usr/share/texlive/texmf-dist/tex/generic/oberdiek/etexcmds.sty" 1463608860 7612 729a8cc22a1ee0029997c7f74717ae05 ""
  "/usr/share/texlive/texmf-dist/tex/generic/oberdiek/ifluatex.sty" 1463608860 7324 2310d1247db0114eb4726807c8837a0e ""
  "/usr/share/texlive/texmf-dist/tex/generic/oberdiek/ifpdf.sty" 1536443070 1300 96620a7d94bc0ceb261d968770ce8315 ""
  "/usr/share/texlive/texmf-dist/tex/generic/oberdiek/infwarerr.sty" 1463608860 8253 473e0e41f9adadb1977e8631b8f72ea6 ""
  "/usr/share/texlive/texmf-dist/tex/generic/oberdiek/kvdefinekeys.sty" 1463608860 5152 b67a3a964ad9851e095110c854a1d461 ""
  "/usr/share/texlive/texmf-dist/tex/generic/oberdiek/kvsetkeys.sty" 1463608860 14040 ac8866aac45982ac84021584b0abb252 ""
  "/usr/share/texlive/texmf-dist/tex/generic/oberdiek/ltxcmds.sty" 1463608860 18425 5b3c0c59d76fac78978b5558e83c1f36 ""
  "/usr/share/texlive/texmf-dist/tex/generic/oberdiek/pdftexcmds.sty" 1536701967 20457 0d2e642faacbb41c9d72690f8cc529cd ""
  "/usr/share/texlive/texmf-dist/tex/generic/pgf/basiclayer/pgfcore.code.tex" 1546728038 969 03f6c464fd951d8725b3a4959f4c6de0 ""
  "/usr/share/texlive/texmf-dist/tex/generic/pgf/basiclayer/pgfcorearrows.code.tex" 1546728038 43820 bc6cf5aa959817914ace33f5c6232161 ""
  "/usr/share/texlive/texmf-dist/tex/generic/pgf/basiclayer/pgfcoreexternal.code.tex" 1546728038 19327 d5d8b64d8e8902e0467e95a8e7c7696a ""
  "/usr/share/texlive/texmf-dist/tex/generic/pgf/basiclayer/pgfcoregraphicstate.code.tex" 1546728038 6038 d639d02574be9a72f3c602c2a3510e02 ""
  "/usr/share/texlive/texmf-dist/tex/generic/pgf/basiclayer/pgfcoreimage.code.tex" 1546728038 6948 284bbe3c9a7ca0a826c1c03895e69b9f ""
  "/usr/share/texlive/texmf-dist/tex/generic/pgf/basiclayer/pgfcorelayers.code.tex" 1546728038 4883 a6f3eb1f71d8c4affaf43a169828b043 ""
  "/usr/share/texlive/texmf-dist/tex/generic/pgf/basiclayer/pgfcoreobjects.code.tex" 1546728038 2544 3b1b198fd49f01e328adc9162a07b213 ""
  "/usr/share/texlive/texmf-dist/tex/generic/pgf/basiclayer/pgfcorepathconstruct.code.tex" 1546728038 44195 134d5eb267e64d2a6b6dc75008e7c5fd ""
  "/usr/share/texlive/texmf-dist/tex/generic/pgf/basiclayer/pgfcorepathprocessing.code.tex" 1546728038 17311 3092579be20ef0f229c42ad3f09da85c ""
  "/usr/share/texlive/texmf-dist/tex/generic/pgf/basiclayer/pgfcorepathusage.code.tex" 1546728038 21302 d6c4b340248adbe650ebf6ca76bdccca ""
  "/usr/share/texlive/texmf-dist/tex/generic/pgf/basiclayer/pgfcorepatterns.code.tex" 1546728038 9541 9d1ee06aeaf948a30f150e450eb2d944 ""
  "/usr/share/texlive/texmf-dist/tex/generic/pgf/basiclayer/pgfcorepoints.code.tex" 1546728038 35255 97ed2fc851a68f753ba47b7329c64cd6 ""
  "/usr/share/texlive/texmf-dist/tex/generic/pgf/basiclayer/pgfcorequick.code.tex" 1546728038 2965 502761b60f43ab2de5ecb2f4625163ae ""
  "/usr/share/texlive/texmf-dist/tex/generic/pgf/basiclayer/pgfcorerdf.code.tex" 1546728038 5196 f8c5c775d4d6e2cb050392127cabda72 ""
  "/usr/share/texlive/texmf-dist/tex/generic/pgf/basiclayer/pgfcorescopes.code.tex" 1546728038 20769 880132a4052c1f4e99080e076592048d ""
  "/usr/share/texlive/texmf-dist/tex/generic/pgf/basiclayer/pgfcoreshade.code.tex" 1546728038 21441 8406a93495c4d3eb13cc93ff27ed5594 ""
  "/usr/share/texlive/texmf-dist/tex/generic/pgf/basiclayer/pgfcoretransformations.code.tex" 1546728038 21989 266e83c51fe41eb8b8d5e6896dc71cc1 ""
  "/usr/share/texlive/texmf-dist/tex/generic/pgf/basiclayer/pgfcoretransparency.code.tex" 1546728038 8842 5cc856e132fac404805c6da091779283 ""
  "/usr/share/texlive/texmf-dist/tex/generic/pgf/frontendlayer/tikz/libraries/tikzlibraryautomata.code.tex" 1546728038 3986 c962be8d57437fcaf853d2babd8ed403 ""
  "/usr/share/texlive/texmf-dist/tex/generic/pgf/frontendlayer/tikz/libraries/tikzlibrarypositioning.code.tex" 1546728038 3937 20cd45386ca23052ce976464f0ada984 ""
  "/usr/share/texlive/texmf-dist/tex/generic/pgf/frontendlayer/tikz/libraries/tikzlibraryshapes.multipart.code.tex" 1546728038 919 da625675781832f2b61a7048a51ef656 ""
  "/usr/share/texlive/texmf-dist/tex/generic/pgf/frontendlayer/tikz/libraries/tikzlibrarytopaths.code.tex" 1546728038 11605 3cfbfe82478675de992de878ae30cba4 ""
  "/usr/share/texlive/texmf-dist/tex/generic/pgf/frontendlayer/tikz/tikz.code.tex" 1549146993 183429 981b5b2f94d03d6b4fb30ea9ab9200c8 ""
  "/usr/share/texlive/texmf-dist/tex/generic/pgf/libraries/pgflibraryplothandlers.code.tex" 1546728038 32995 a4d54c043ae5274ceaaddeb36ad43a6f ""
  "/usr/share/texlive/texmf-dist/tex/generic/pgf/libraries/shapes/pgflibraryshapes.multipart.code.tex" 1546728038 62281 fd68e6d2c2dc178611c8f4d2d86e79ae ""
  "/usr/share/texlive/texmf-dist/tex/generic/pgf/math/pgfmath.code.tex" 1546728038 520 910e22995dad318235ba8e2fb536bf3a ""
  "/usr/share/texlive/texmf-dist/tex/generic/pgf/math/pgfmathcalc.code.tex" 1393459310 13416 940ea6971d7a65dc440d3479939c66ae ""
  "/usr/share/texlive/texmf-dist/tex/generic/pgf/math/pgfmathfloat.code.tex" 1546728038 95102 474fa5793f7f3067e17a5df9b98218c1 ""
  "/usr/share/texlive/texmf-dist/tex/generic/pgf/math/pgfmathfunctions.base.code.tex" 1393459310 9375 5adc70f722abd29fc250d59e0694b548 ""
  "/usr/share/texlive/texmf-dist/tex/generic/pgf/math/pgfmathfunctions.basic.code.tex" 1439074469 22069 7c21c42b15718ce922f36235be360490 ""
  "/usr/share/texlive/texmf-dist/tex/generic/pgf/math/pgfmathfunctions.code.tex" 1439074469 8210 a7be5b52ef3d2c087b7dc3d52898b67e ""
  "/usr/share/texlive/texmf-dist/tex/generic/pgf/math/pgfmathfunctions.comparison.code.tex" 1288312291 3534 c7f28fbac13616513e513efe93b8569b ""
  "/usr/share/texlive/texmf-dist/tex/generic/pgf/math/pgfmathfunctions.integerarithmetics.code.tex" 1546728038 3168 6189b7a28d77f4af65d3a14e7f03c083 ""
  "/usr/share/texlive/texmf-dist/tex/generic/pgf/math/pgfmathfunctions.misc.code.tex" 1439074469 9289 261407875b9dbb0194691c3eb893610f ""
  "/usr/share/texlive/texmf-dist/tex/generic/pgf/math/pgfmathfunctions.random.code.tex" 1439074469 7078 946ddf4a7e57219b6afdbad98eb6731b ""
  "/usr/share/texlive/texmf-dist/tex/generic/pgf/math/pgfmathfunctions.round.code.tex" 1546728038 2942 88413c69264c367e851538882cebd4ab ""
  "/usr/share/texlive/texmf-dist/tex/generic/pgf/math/pgfmathfunctions.trigonometric.code.tex" 1439074469 92284 dcf023dbaa84e6c50e11c2f79fe8cfa6 ""
  "/usr/share/texlive/texmf-dist/tex/generic/pgf/math/pgfmathparser.code.tex" 1546728038 36120 4aaaf2a5a988fdb79e316766ce090110 ""
  "/usr/share/texlive/texmf-dist/tex/generic/pgf/math/pgfmathutil.code.tex" 1393459310 7099 f44d505bae6c7c2b933cdd63441db4b9 ""
  "/usr/share/texlive/texmf-dist/tex/generic/pgf/modules/pgfmodulematrix.code.tex" 1546728038 20850 69672e3a68af93b0052e22743ab29325 ""
  "/usr/share/texlive/texmf-dist/tex/generic/pgf/modules/pgfmoduleplot.code.tex" 1546728038 16105 ad277a81d51151a43eada2f59e9c7f63 ""
  "/usr/share/texlive/texmf-dist/tex/generic/pgf/modules/pgfmoduleshapes.code.tex" 1546728038 43225 550a85f34e942cf510108872e6d17824 ""
  "/usr/share/texlive/texmf-dist/tex/generic/pgf/pgf.revision.tex" 1549146993 463 2e8ae5ae7338c3efc0d56a1c648a2938 ""
  "/usr/share/texlive/texmf-dist/tex/generic/pgf/systemlayer/pgf.cfg" 1546728038 929 c7e63c9d336acc04681ebf5d5974ff79 ""
  "/usr/share/texlive/texmf-dist/tex/generic/pgf/systemlayer/pgfsys-common-pdf.def" 1546728038 5554 eaa8269939dc6788f137cf082148c630 ""
  "/usr/share/texlive/texmf-dist/tex/generic/pgf/systemlayer/pgfsys-pdftex.def" 1546728038 13467 81cbde9036aeefde6ced72c35f65a11e ""
  "/usr/share/texlive/texmf-dist/tex/generic/pgf/systemlayer/pgfsys.code.tex" 1546728038 60336 26aaa566685b708e5bbad33b1fea85b6 ""
  "/usr/share/texlive/texmf-dist/tex/generic/pgf/systemlayer/pgfsysprotocol.code.tex" 1546728038 1895 a804dfc15a55439296d72fd96ed29ac7 ""
  "/usr/share/texlive/texmf-dist/tex/generic/pgf/systemlayer/pgfsyssoftpath.code.tex" 1546728038 7793 fb7bd1e1f7162b9073fa1d5356c99d44 ""
  "/usr/share/texlive/texmf-dist/tex/generic/pgf/utilities/pgffor.code.tex" 1546728038 22321 e57de05109d919549a27eaaf05c180fc ""
  "/usr/share/texlive/texmf-dist/tex/generic/pgf/utilities/pgfkeys.code.tex" 1546728038 36455 3b0b1cf51efce44b8791b93c27bbca48 ""
  "/usr/share/texlive/texmf-dist/tex/generic/pgf/utilities/pgfkeysfiltered.code.tex" 1546728038 33347 679274d4aa67c6bc8f5f234caa49367d ""
  "/usr/share/texlive/texmf-dist/tex/generic/pgf/utilities/pgfrcs.code.tex" 1546728038 2311 e273ccf1220640ccce91d49a21bd5eec ""
  "/usr/share/texlive/texmf-dist/tex/generic/pgf/utilities/pgfutil-common-lists.tex" 1393459310 6833 114eda2cf1d348e0e7e477a1a4dc1941 ""
  "/usr/share/texlive/texmf-dist/tex/generic/pgf/utilities/pgfutil-common.tex" 1546728038 26409 498c460a45ec6d31d3794cb500da29ed ""
  "/usr/share/texlive/texmf-dist/tex/generic/pgf/utilities/pgfutil-latex.def" 1546728038 5845 c578abb59cb8ad0a9156fdb1b59cfa38 ""
  "/usr/share/texlive/texmf-dist/tex/latex/algorithmicx/algorithmicx.sty" 1480098820 26750 ce139c05a983e19ddca355b43e29c395 ""
  "/usr/share/texlive/texmf-dist/tex/latex/algorithmicx/algpseudocode.sty" 1480098820 3457 d9077efe6b74c5a094199256af8d7d9a ""
  "/usr/share/texlive/texmf-dist/tex/latex/algorithms/algorithm.sty" 1480098820 3249 15763257e50278eef5db1952ccde229c ""
  "/usr/share/texlive/texmf-dist/tex/latex/amscls/amsthm.sty" 1513722769 12604 3dec726c041422879dc3268237f09026 ""
  "/usr/share/texlive/texmf-dist/tex/latex/amsfonts/amsfonts.sty" 1480098820 5949 3f3fd50a8cc94c3d4cbf4fc66cd3df1c ""
  "/usr/share/texlive/texmf-dist/tex/latex/amsfonts/umsa.fd" 1480098820 961 6518c6525a34feb5e8250ffa91731cff ""
  "/usr/share/texlive/texmf-dist/tex/latex/amsfonts/umsb.fd" 1480098820 961 d02606146ba5601b5645f987c92e6193 ""
  "/usr/share/texlive/texmf-dist/tex/latex/amsmath/amsbsy.sty" 1523134290 2211 ca7ce284ab93c8eecdc6029dc5ccbd73 ""
  "/usr/share/texlive/texmf-dist/tex/latex/amsmath/amsgen.sty" 1523134290 4161 7f6eb9092061a11f87d08ed13515b48d ""
  "/usr/share/texlive/texmf-dist/tex/latex/amsmath/amsmath.sty" 1544567569 85093 77cfa18ddbae4d9b74ade33d843686d3 ""
  "/usr/share/texlive/texmf-dist/tex/latex/amsmath/amsopn.sty" 1523134290 4116 32e6abd27229755a83a8b7f18e583890 ""
  "/usr/share/texlive/texmf-dist/tex/latex/amsmath/amstext.sty" 1523134290 2432 8ff93b1137020e8f21930562a874ae66 ""
  "/usr/share/texlive/texmf-dist/tex/latex/base/article.cls" 1544567569 19933 3097d1b31d3c45dc957096f554529032 ""
  "/usr/share/texlive/texmf-dist/tex/latex/base/ifthen.sty" 1523050425 5161 c004ea5a189d4bdcf42e86754ad75a58 ""
  "/usr/share/texlive/texmf-dist/tex/latex/base/omscmr.fd" 1523050425 2472 aa08940f0a4dc6c24ae9f943b04ae0b9 ""
  "/usr/share/texlive/texmf-dist/tex/latex/base/size10.clo" 1544567569 8294 6d6e23d5169c0d89d173f6c7e08a005a ""
  "/usr/share/texlive/texmf-dist/tex/latex/enumitem/enumitem.sty" 1549316214 51603 ccc7546d1e15809a779ade2c44d54044 ""
  "/usr/share/texlive/texmf-dist/tex/latex/fancyhdr/extramarks.sty" 1548974385 3126 a692e45148ecd2ef3554cd640be3c450 ""
  "/usr/share/texlive/texmf-dist/tex/latex/fancyhdr/fancyhdr.sty" 1548974385 11128 a53805799bebfed6358fc1658a18e41f ""
  "/usr/share/texlive/texmf-dist/tex/latex/float/float.sty" 1480098828 6749 16d2656a1984957e674b149555f1ea1d ""
  "/usr/share/texlive/texmf-dist/tex/latex/graphics-cfg/color.cfg" 1480098830 1213 620bba36b25224fa9b7e1ccb4ecb76fd ""
  "/usr/share/texlive/texmf-dist/tex/latex/graphics-cfg/graphics.cfg" 1480098830 1224 978390e9c2234eab29404bc21b268d1e ""
  "/usr/share/texlive/texmf-dist/tex/latex/graphics-def/pdftex.def" 1515537368 17334 520b9b85ad8a2a48eda3f643e27a5179 ""
  "/usr/share/texlive/texmf-dist/tex/latex/graphics/graphics.sty" 1523134385 15272 5a97061616e0c8b2aa79c6615ff769f4 ""
  "/usr/share/texlive/texmf-dist/tex/latex/graphics/graphicx.sty" 1523134385 9063 d0a305975932762117cd1f06a582f896 ""
  "/usr/share/texlive/texmf-dist/tex/latex/graphics/keyval.sty" 1523134385 2591 6404d0c7d28505fb38ce0d86c2e28ae7 ""
  "/usr/share/texlive/texmf-dist/tex/latex/graphics/trig.sty" 1523134385 3977 cb9221976ed8a183afad65b59aa8629a ""
  "/usr/share/texlive/texmf-dist/tex/latex/latexconfig/epstopdf-sys.cfg" 1480098833 678 4792914a8f45be57bb98413425e4c7af ""
  "/usr/share/texlive/texmf-dist/tex/latex/ms/everyshi.sty" 1480098835 3878 6aa7c08ff2621006e0603349e40a30a8 ""
  "/usr/share/texlive/texmf-dist/tex/latex/oberdiek/epstopdf-base.sty" 1463608860 12095 5337833c991d80788a43d3ce26bd1c46 ""
  "/usr/share/texlive/texmf-dist/tex/latex/oberdiek/grfext.sty" 1463608860 7075 2fe3d848bba95f139de11ded085e74aa ""
  "/usr/share/texlive/texmf-dist/tex/latex/oberdiek/kvoptions.sty" 1463608860 22417 1d9df1eb66848aa31b18a593099cf45c ""
  "/usr/share/texlive/texmf-dist/tex/latex/pgf/basiclayer/pgf.sty" 1546728038 1090 d20f587ea9464d1841bd0d13d3ff9856 ""
  "/usr/share/texlive/texmf-dist/tex/latex/pgf/basiclayer/pgfcore.sty" 1288312291 410 5bf12ea7330e5f12c445332a4fe9a263 ""
  "/usr/share/texlive/texmf-dist/tex/latex/pgf/compatibility/pgfcomp-version-0-65.sty" 1546728038 21013 e98e1aaaf40d31632787c2bd25d24b57 ""
  "/usr/share/texlive/texmf-dist/tex/latex/pgf/compatibility/pgfcomp-version-1-18.sty" 1546728038 989 2cf3da8e8ec55131c49389428d565e37 ""
  "/usr/share/texlive/texmf-dist/tex/latex/pgf/frontendlayer/tikz.sty" 1203877327 339 592cf35cba3d400082b8a9a5d0199d70 ""
  "/usr/share/texlive/texmf-dist/tex/latex/pgf/math/pgfmath.sty" 1393459310 306 0796eafca5e159e6ec2167a6d22d81b1 ""
  "/usr/share/texlive/texmf-dist/tex/latex/pgf/systemlayer/pgfsys.sty" 1393459310 443 0b2e781830192df35c0fd357cf13e26e ""
  "/usr/share/texlive/texmf-dist/tex/latex/pgf/utilities/pgffor.sty" 1393459310 348 8927fde343487e003b01a4c2ca34073b ""
  "/usr/share/texlive/texmf-dist/tex/latex/pgf/utilities/pgfkeys.sty" 1203727794 274 4cad6e665cc93ac2ac979039a94fa1e1 ""
  "/usr/share/texlive/texmf-dist/tex/latex/pgf/utilities/pgfrcs.sty" 1203877327 325 2bcd023400636339210573e2b3ee298b ""
  "/usr/share/texlive/texmf-dist/tex/latex/xcolor/xcolor.sty" 1480098843 55589 34128738f682d033422ca125f82e5d62 ""
  "/usr/share/texlive/texmf-dist/web2c/texmf.cnf" 1551493644 34566 ab5be96bde1a5acfd4f881dbe566b5fb ""
  "/usr/share/texmf/web2c/texmf.cnf" 1551493644 34566 ab5be96bde1a5acfd4f881dbe566b5fb ""
  "/var/lib/texmf/fonts/map/pdftex/updmap/pdftex.map" 1586198140 164837 f472f40ab643c6b1fa7fff8b04d446df ""
  "/var/lib/texmf/web2c/pdftex/pdflatex.fmt" 1586198143 881506 6cfa63c93e9e561f6dab1812fdefc707 ""
  "vancekWritten4.aux" 1590177528 168 db928a7b82d2f1985855e60daf38ace6 ""
  "vancekWritten4.tex" 1590177526 6339 2ca57523ffcaf85d18deb338b77b6046 ""
  (generated)
  "vancekWritten4.aux"
  "vancekWritten4.log"
  "vancekWritten4.pdf"
