\relax 
\providecommand\hyper@newdestlabel[2]{}
\providecommand*\new@tpo@label[2]{}
\providecommand\HyperFirstAtBeginDocument{\AtBeginDocument}
\HyperFirstAtBeginDocument{\ifx\hyper@anchor\@undefined
\global\let\oldcontentsline\contentsline
\gdef\contentsline#1#2#3#4{\oldcontentsline{#1}{#2}{#3}}
\global\let\oldnewlabel\newlabel
\gdef\newlabel#1#2{\newlabelxx{#1}#2}
\gdef\newlabelxx#1#2#3#4#5#6{\oldnewlabel{#1}{{#2}{#3}}}
\AtEndDocument{\ifx\hyper@anchor\@undefined
\let\contentsline\oldcontentsline
\let\newlabel\oldnewlabel
\fi}
\fi}
\global\let\hyper@last\relax 
\gdef\HyperFirstAtBeginDocument#1{#1}
\providecommand\HyField@AuxAddToFields[1]{}
\providecommand\HyField@AuxAddToCoFields[2]{}
\providecommand\BKM@entry[2]{}
\providecommand\mph@setcol[2]{}
\@writefile{lof}{\deactivateaddvspace  }
\@writefile{lot}{\deactivateaddvspace  }
\mph@setcol{ii:1}{\mph@nr}
\BKM@entry{id=1,dest={73656374696F6E2E31},srcline={83}}{3120496E74726F64756374696F6E}
\BKM@entry{id=2,dest={73656374696F6E2E32},srcline={87}}{32205265766F6C7574696F6E3A20436173652053747564696573}
\BKM@entry{id=3,dest={73756273656374696F6E2E322E31},srcline={90}}{322E31204672656E6368205265766F6C7574696F6E3A20313738392D31373939}
\BKM@entry{id=4,dest={73756273756273656374696F6E2E322E312E31},srcline={92}}{322E312E3120507265636F6E646974696F6E73}
\citation{frenchRev}
\citation{whatIs}
\BKM@entry{id=5,dest={73756273756273656374696F6E2E322E312E32},srcline={109}}{322E312E3220437269746963616C204A756E6374757265}
\@writefile{toc}{\contentsline {section}{\numberline {1}{Introduction}}{2}{section.1}\protected@file@percent }
\@writefile{toc}{\contentsline {section}{\numberline {2}{Revolution: Case Studies}}{2}{section.2}\protected@file@percent }
\@writefile{toc}{\contentsline {subsection}{\numberline {2.1}{French Revolution: 1789-1799}}{2}{subsection.2.1}\protected@file@percent }
\@writefile{toc}{\contentsline {subsubsection}{\numberline {2.1.1}{Preconditions}}{2}{subsubsection.2.1.1}\protected@file@percent }
\@writefile{toc}{\contentsline {paragraph}{{Class structure}}{2}{paragraph*.1}\protected@file@percent }
\@writefile{toc}{\contentsline {paragraph}{{Representation}}{2}{paragraph*.2}\protected@file@percent }
\mph@setcol{ii:2}{\mph@nr}
\BKM@entry{id=6,dest={73756273756273656374696F6E2E322E312E33},srcline={118}}{322E312E3320416E616C7973697320616E64204F7574636F6D6573}
\citation{frenchAnth}
\BKM@entry{id=7,dest={73756273656374696F6E2E322E32},srcline={129}}{322E3220437562616E205265766F6C7574696F6E3A20313935332D31393539}
\BKM@entry{id=8,dest={73756273756273656374696F6E2E322E322E31},srcline={131}}{322E322E3120507265636F6E646974696F6E73}
\citation{amCubCap}
\@writefile{toc}{\contentsline {subsubsection}{\numberline {2.1.2}{Critical Juncture}}{3}{subsubsection.2.1.2}\protected@file@percent }
\@writefile{toc}{\contentsline {paragraph}{{Storming of the Bastille}}{3}{paragraph*.3}\protected@file@percent }
\@writefile{toc}{\contentsline {subsubsection}{\numberline {2.1.3}{Analysis and Outcomes}}{3}{subsubsection.2.1.3}\protected@file@percent }
\@writefile{toc}{\contentsline {paragraph}{{Antagonistic Factors}}{3}{paragraph*.4}\protected@file@percent }
\@writefile{toc}{\contentsline {paragraph}{{Reform}}{3}{paragraph*.5}\protected@file@percent }
\@writefile{toc}{\contentsline {subsection}{\numberline {2.2}{Cuban Revolution: 1953-1959}}{3}{subsection.2.2}\protected@file@percent }
\@writefile{toc}{\contentsline {subsubsection}{\numberline {2.2.1}{Preconditions}}{3}{subsubsection.2.2.1}\protected@file@percent }
\@writefile{toc}{\contentsline {paragraph}{{Corruption}}{3}{paragraph*.6}\protected@file@percent }
\mph@setcol{ii:3}{\mph@nr}
\BKM@entry{id=9,dest={73756273756273656374696F6E2E322E322E32},srcline={143}}{322E322E3220437269746963616C204A756E6374757265}
\citation{cubanAnth}
\@writefile{toc}{\contentsline {paragraph}{{Representation}}{4}{paragraph*.7}\protected@file@percent }
\@writefile{toc}{\contentsline {subsubsection}{\numberline {2.2.2}{Critical Juncture}}{4}{subsubsection.2.2.2}\protected@file@percent }
\@writefile{toc}{\contentsline {paragraph}{{Moncada Barracks}}{4}{paragraph*.8}\protected@file@percent }
\@writefile{toc}{\contentsline {paragraph}{{Guerillas}}{4}{paragraph*.9}\protected@file@percent }
\mph@setcol{ii:4}{\mph@nr}
\BKM@entry{id=10,dest={73756273756273656374696F6E2E322E322E33},srcline={154}}{322E322E3320416E616C7973697320616E64204F7574636F6D6573}
\BKM@entry{id=11,dest={73656374696F6E2E33},srcline={168}}{33204D6F6465726E2044617920416D6572696361}
\BKM@entry{id=12,dest={73756273656374696F6E2E332E31},srcline={170}}{332E312053746174697374696373}
\citation{wealthIneq}
\citation{incIneq}
\citation{wealthIneq}
\BKM@entry{id=13,dest={73656374696F6E2E34},srcline={178}}{3420526573756C747320616E642044697363757373696F6E}
\BKM@entry{id=14,dest={73756273656374696F6E2E342E31},srcline={180}}{342E31205265616374696F6E73}
\citation{misPercIneq}
\@writefile{toc}{\contentsline {paragraph}{{Solidarity}}{5}{paragraph*.10}\protected@file@percent }
\@writefile{toc}{\contentsline {subsubsection}{\numberline {2.2.3}{Analysis and Outcomes}}{5}{subsubsection.2.2.3}\protected@file@percent }
\@writefile{toc}{\contentsline {paragraph}{{Antagonistic Factors}}{5}{paragraph*.11}\protected@file@percent }
\@writefile{toc}{\contentsline {paragraph}{{Reform}}{5}{paragraph*.12}\protected@file@percent }
\@writefile{toc}{\contentsline {section}{\numberline {3}{Modern Day America}}{5}{section.3}\protected@file@percent }
\@writefile{toc}{\contentsline {subsection}{\numberline {3.1}{Statistics}}{5}{subsection.3.1}\protected@file@percent }
\@writefile{toc}{\contentsline {paragraph}{{Inequality}}{5}{paragraph*.13}\protected@file@percent }
\mph@setcol{ii:5}{\mph@nr}
\citation{havBlue}
\@writefile{toc}{\contentsline {section}{\numberline {4}{Results and Discussion}}{6}{section.4}\protected@file@percent }
\@writefile{toc}{\contentsline {subsection}{\numberline {4.1}{Reactions}}{6}{subsection.4.1}\protected@file@percent }
\@writefile{toc}{\contentsline {paragraph}{{Statistics vs. Perceptions}}{6}{paragraph*.14}\protected@file@percent }
\@writefile{toc}{\contentsline {paragraph}{{External vs. Internal}}{6}{paragraph*.15}\protected@file@percent }
\mph@setcol{ii:6}{\mph@nr}
\bibstyle{unsrt}
\bibdata{final.bib}
\bibcite{frenchRev}{1}
\bibcite{whatIs}{2}
\bibcite{frenchAnth}{3}
\bibcite{cubanAnth}{4}
\bibcite{wealthIneq}{5}
\bibcite{incIneq}{6}
\bibcite{misPercIneq}{7}
\bibcite{havBlue}{8}
\mph@setcol{ii:7}{\mph@nr}
\gdef\mph@lastpage{8}
\csname mph@do@warn\endcsname
